{
  "callbacks": [
    "task",
    "thread",
    "parallel",
    "work",
    "implicit_task",
    "master",
    "sync_region",
    "taskwait"
  ],
  "max_tasks":2048,
  "graph_time":"yes",
  "critical_path":"yes"
}
